/*---------------------------------------------------------------------------*\
| =========                 |                                                 |
| \\      /  F ield         | foam-extend: Open Source CFD                    |
|  \\    /   O peration     | Version:     4.0                                |
|   \\  /    A nd           | Web:         http://www.foam-extend.org         |
|    \\/     M anipulation  | For copyright notice see file Copyright         |
\*---------------------------------------------------------------------------*/
Build    : 4.0-4fad65ce7cac
Exec     : interReactiveTransportFoam
Date     : Dec 17 2020
Time     : 13:33:16
Host     : Research187Ubuntu
PID      : 99213
CtrlDict : "/home/julien/works/GeoChemFoam-dev/tutorials/multiphaseReactiveTransport/interReactiveTransportFoam/poreSpaceReactiveTransport/system/controlDict"
Case     : /home/julien/works/GeoChemFoam-dev/tutorials/multiphaseReactiveTransport/interReactiveTransportFoam/poreSpaceReactiveTransport
nProcs   : 1
SigFpe   : Enabling floating point exception trapping (FOAM_SIGFPE).

// * * * * * * * * * * * * * * * * * * * * * * * * * * * * * * * * * * * * * //
Create time

Create mesh for time = 0


SIMPLE: no convergence criteria found. Calculations will run for 1e-06 steps.


PIMPLE: Operating solver in PISO mode


Reading g
Reading field pd

Reading field alpha1

Create field alpha2

Reading field U

Reading/calculating face flux field phi

Reading transportProperties

Selecting incompressible transport model Newtonian
Selecting incompressible transport model Newtonian
Reading thermoPhysicalPropertiesProperties

Create species mixture

Selecting Mixture type phreeqcMixture for Phase 1
Selecting Mixture type inertMultiComponentMixture for Phase 2

4
(
Ca+2
Cl-
H+
OH-
)


3
(
Surf_a-
Surf_aCa+
Surf_aH
)

nsol:7
nsurf:3
Reading compressive flux coefficient

Calculating field g.h

Selecting turbulence model type laminar
time step continuity errors : sum local = 0.00010869565, global = -0.00010869565, cumulative = -0.00010869565
GAMG:  Solving for pcorr, Initial residual = 0.99999998, Final residual = 6.9742856e-09, No Iterations 20
GAMG:  Solving for pcorr, Initial residual = 5.8119048e-10, Final residual = 5.8119048e-10, No Iterations 0
time step continuity errors : sum local = 7.5807411e-13, global = -2.0525129e-14, cumulative = -0.00010869565
Courant Number mean: 0.00012681159 max: 0.0010869565 velocity magnitude: 0.01

Starting time loop

Courant Number mean: 0.00012655848 max: 0.0010847869 velocity magnitude: 0.01
deltaT = 9.9800399e-07
Time = 9.9800399e-07

PIMPLE: iteration 1
MULES: Solving for Ca+2
BiCGStab:  Solving for Ca+2, Initial residual = 4.0361264e-08, Final residual = 5.939104e-28, No Iterations 1
BiCGStab:  Solving for Ca+2, Initial residual = 0, Final residual = 0, No Iterations 0
Species concentration = 0.0008984  Min(Yi) = 0.0008984  Max(Yi) = 0.0008984
MULES: Solving for Cl-
BiCGStab:  Solving for Cl-, Initial residual = 8.0665779e-08, Final residual = 1.1869858e-27, No Iterations 1
BiCGStab:  Solving for Cl-, Initial residual = 0, Final residual = 0, No Iterations 0
Species concentration = 0.0017968  Min(Yi) = 0.0017968  Max(Yi) = 0.0017968
MULES: Solving for H+
BiCGStab:  Solving for H+, Initial residual = 4.9303803e-12, Final residual = 4.9303803e-12, No Iterations 0
BiCGStab:  Solving for H+, Initial residual = 4.9303803e-12, Final residual = 4.9303803e-12, No Iterations 0
Species concentration = 1.051e-07  Min(Yi) = 1.051e-07  Max(Yi) = 1.051e-07
MULES: Solving for OH-
BiCGStab:  Solving for OH-, Initial residual = 5.238529e-12, Final residual = 5.238529e-12, No Iterations 0
BiCGStab:  Solving for OH-, Initial residual = 5.238529e-12, Final residual = 5.238529e-12, No Iterations 0
Species concentration = 1.069e-07  Min(Yi) = 1.069e-07  Max(Yi) = 1.069e-07
MULES: Solving for alpha1
Liquid phase volume fraction = 1  Min(alpha1) = 1  Max(alpha1) = 1
GAMG:  Solving for pc, Initial residual = 0.99999986, Final residual = 0.0040172457, No Iterations 3
GAMG:  Solving for pc, Initial residual = 0.0019787671, Final residual = 1.132466e-05, No Iterations 5
GAMG:  Solving for pd, Initial residual = 0.99999998, Final residual = 0.0080470537, No Iterations 6
GAMG:  Solving for pd, Initial residual = 0.00067045026, Final residual = 4.4873474e-06, No Iterations 5
GAMG:  Solving for pd, Initial residual = 0.0046029226, Final residual = 3.1470826e-05, No Iterations 6
GAMG:  Solving for pd, Initial residual = 3.2953249e-05, Final residual = 6.0808459e-07, No Iterations 4
GAMG:  Solving for pd, Initial residual = 7.202304e-05, Final residual = 6.5606227e-07, No Iterations 5
GAMG:  Solving for pd, Initial residual = 6.5624952e-07, Final residual = 8.6835681e-08, No Iterations 2
time step continuity errors : sum local = 1.0776458e-10, global = 2.3406512e-12, cumulative = -0.00010869565
ExecutionTime = 0.06 s  ClockTime = 0 s

End

